"ID";"Bezeichner";"Gehäuse";"Stückzahl";"Bezeichnung";"Anbieter und Referenz";
1;"U8";"QFN-24-1EP_4x4mm_P0.5mm_EP2.6x2.6mm";1;"CP2102N";;;
2;"R3,R2,R1,R65";"R_0603_1608Metric_Pad0.98x0.95mm_HandSolder";4;"47K";;;
3;"R107,R75,R91,R106,R74,R90,R66,R68,R56,R58,R53,R69,R52,R67,R57,R50,R54,R51,R55";"R_0603_1608Metric_Pad0.98x0.95mm_HandSolder";19;"33";;;
4;"C28,C30,C32";"C_0805_2012Metric_Pad1.18x1.45mm_HandSolder";3;"2u2";;;
5;"J11";"PinHeader_1x08_P2.54mm_Vertical";1;"JTAG";;;
6;"J8";"JST_PH_B2B-PH-K_1x02_P2.00mm_Vertical";1;"XRES";;;
7;"C36,C59,C71,C38,C35,C46,C33,C67,C37,C72,C41,C29,C51,C61,C50,C49,C58,C65,C47,C63,C23,C27,C64,C56,C53,C34,C55,C40,C68,C26,C69,C70,C25,C2";"C_0603_1608Metric_Pad1.08x0.95mm_HandSolder";34;"100n";;;
8;"C21";"C_0805_2012Metric_Pad1.18x1.45mm_HandSolder";1;"47u";;;
9;"D8";"LED_0603_1608Metric_Pad1.05x0.95mm_HandSolder";1;"RX";;;
10;"J24";"PinHeader_1x02_P2.54mm_Vertical";1;"TP_3V3CAN";;;
11;"U5";"SOT-223-3_TabPin2";1;"AP1117-33";;;
12;"R59,R110,R46,R84,R47,R109,R93,R103,R112,R101,R105,R24,R30,R113,R32,R29,R95,R108,R94,R99,R31,R96,R102,R104,R4,R100,R98,R97,R5,R111";"R_0603_1608Metric_Pad0.98x0.95mm_HandSolder";30;"NP";;;
13;"H1,H4,H2,H3";"MountingHole_5.5mm";4;"MountingHole";;;
14;"J28";"PinHeader_1x02_P2.54mm_Vertical";1;"LOOP";;;
15;"C57,C62,C60,C48,C66,C42,C1";"C_0805_2012Metric_Pad1.18x1.45mm_HandSolder";7;"10u";;;
16;"R86";"R_0603_1608Metric_Pad0.98x0.95mm_HandSolder";1;"22K1";;;
17;"SW2";"SW_Push_1P1T_NO_CK_KMR2";1;"BOOT";;;
18;"U7";"SOIC-16W_7.5x10.3mm_P1.27mm";1;"ADuM1401xRW";;;
19;"J26";"WE-WP-PLUG_REDCUBE";1;"12V+";;;
20;"R49,R72,R73";"R_0603_1608Metric_Pad0.98x0.95mm_HandSolder";3;"1K";;;
21;"J6";"IDC-Header_2x05_P2.54mm_Vertical";1;"PROT_FET";;;
22;"J3";"WE-WP-PLUG_REDCUBE";1;"BATT-";;;
23;"J25";"PinHeader_1x03_P2.54mm_Vertical";1;"SEL3V3";;;
24;"C3,C39";"C_0805_2012Metric_Pad1.18x1.45mm_HandSolder";2;"1u";;;
25;"D4,D5,D1,D2";"D_SMA-SMB_Universal_Handsoldering";4;"SS 16";;;
26;"D7,D6";"SOT-23";2;"BAT54C";;;
27;"D3";"LED_0603_1608Metric_Pad1.05x0.95mm_HandSolder";1;"ALERT";;;
28;"J7";"JST_PH_B4B-PH-K_1x04_P2.00mm_Vertical";1;"ISENSE";;;
29;"F1";"Fuse_1210_3225Metric_Pad1.42x2.65mm_HandSolder";1;"Polyfuse";;;
30;"R92";"R_0603_1608Metric_Pad0.98x0.95mm_HandSolder";1;"470K";;;
31;"R87,R88";"R_0603_1608Metric_Pad0.98x0.95mm_HandSolder";2;"10";;;
32;"Q3,Q4";"SOT-23";2;"BC817";;;
33;"R62";"R_0603_1608Metric_Pad0.98x0.95mm_HandSolder";1;"24K9";;;
34;"U13";"SOIC-8_3.9x4.9mm_P1.27mm";1;"MAX12931";;;
35;"J2";"WE-WP-PLUG_REDCUBE";1;"BATT+";;;
36;"J16";"USB_Mini-B_Wuerth_65100516121_Horizontal";1;"USB_B_Mini";;;
37;"U10";"SOT-223-3_TabPin2";1;"AP1117-50";;;
38;"J15";"PinHeader_1x05_P2.54mm_Vertical";1;"BQ_PROG";;;
39;"J19,J18";"Molex_705550038_1X04_SL_Modular_1x04_P2.54mm_Horizontal";2;"CAN_EXT";;;
40;"J1";"IDC-Header_2x20_P2.54mm_Vertical";1;"EXT_ACT_BAL";;;
41;"J22";"PinHeader_1x02_P2.54mm_Vertical";1;"TP_12V";;;
42;"R89";"R_0603_1608Metric_Pad0.98x0.95mm_HandSolder";1;"120";;;
43;"R23,R27,R28";"R_0603_1608Metric_Pad0.98x0.95mm_HandSolder";3;"100";;;
44;"J14";"JST_PH_B3B-PH-K_1x03_P2.00mm_Vertical";1;"RES_COM";;;
45;"D9";"LED_0603_1608Metric_Pad1.05x0.95mm_HandSolder";1;"TX";;;
46;"R80,R81,R76,R78,R83,R82,R114,R79,R77";"R_0603_1608Metric_Pad0.98x0.95mm_HandSolder";9;"330";;;
47;"J27";"WE-WP-PLUG_REDCUBE";1;"12V-";;;
48;"J10";"PinHeader_1x02_P2.54mm_Vertical";1;"5V_EXT";;;
49;"J13,J12";"PinHeader_1x05_P2.54mm_Vertical";2;"ESP_PROG";;;
50;"U11";"SOIC-8_7.5x5.85mm_P1.27mm";1;"ISO1050DUB/1042DWV";;;
51;"J9";"PinHeader_1x03_P2.54mm_Vertical";1;"Imdrv";;;
52;"R71";"R_0603_1608Metric_Pad0.98x0.95mm_HandSolder";1;"220";;;
53;"L1";"L_Wuerth_WE-PD-Typ-7345";1;"47u";;;
54;"C4,C24";"C_0603_1608Metric_Pad1.08x0.95mm_HandSolder";2;"100p";;;
55;"SW3";"SW_Push_1P1T_NO_CK_KMR2";1;"RESET";;;
56;"J29";"JST_XH_S2B-XH-A_1x02_P2.50mm_Horizontal";1;"VBATT";;;
57;"U4";"VQFN-8-1EP_2x2mm_P0.5mm_EP0.6x1.2mm";1;"LMR36506";;;
58;"J4";"Think-BMS-Connector";1;"Think-BMS-Connector";;;
59;"Q2";"SOT-23";1;"BC847";;;
60;"L2";"L_CommonModeChoke_Coilcraft_1812CAN";1;"L_Ferrite_Coupled_1243";;;
61;"U12";"SOIC-8_3.9x4.9mm_P1.27mm";1;"SN65HVD234";;;
62;"J17";"PinHeader_1x02_P2.54mm_Vertical";1;"VUSB";;;
63;"C52,C54";"C_0805_2012Metric_Pad1.18x1.45mm_HandSolder";2;"4u7";;;
64;"D10";"D_SMB";1;"SM6T18A";;;
65;"U9";"SOT-23-6";1;"WE-TVS-82400102";;;
66;"R85";"R_0603_1608Metric_Pad0.98x0.95mm_HandSolder";1;"47K5";;;
67;"R64,R63";"R_0603_1608Metric_Pad0.98x0.95mm_HandSolder";2;"22K";;;
68;"U6";"ESP32-WROOM-32";1;"ESP32-WROOM-32D";;;
69;"Q5";"SOT-23_Handsoldering";1;"IRLML6302";;;
70;"J20";"IDC-Header_2x10_P2.54mm_Latch_Horizontal";1;"Conn_02x10_Odd_Even";;;
71;"J5";"IDC-Header_2x10_P2.54mm_Vertical";1;"EXT_PWR_BUS";;;
72;"Q1";"SOT-89-3_Handsoldering";1;"FCX495(Q)TA";;;
73;"R60,R34,R35,R33,R36";"R_0603_1608Metric_Pad0.98x0.95mm_HandSolder";5;"0";;;
74;"J23";"PinHeader_1x02_P2.54mm_Vertical";1;"TP_VEECAN";;;
75;"R70,R48,R26,R45,R25";"R_0603_1608Metric_Pad0.98x0.95mm_HandSolder";5;"10K";;;
76;"J21";"PinHeader_1x02_P2.54mm_Vertical";1;"CAN_TERM";;;
77;"C22,C14,C10,C16,C19,C17,C20,C9,C11,C8,C18,C12,C15,C6,C5,C13,C7";"C_0603_1608Metric_Pad1.08x0.95mm_HandSolder";17;"220n";;;
78;"R13,R11,R8,R20,R12,R10,R18,R14,R22,R6,R21,R7,R15,R9,R17,R16,R19";"R_0603_1608Metric_Pad0.98x0.95mm_HandSolder";17;"22";;;
79;"C44,C45,C43";"C_0805_2012Metric_Pad1.18x1.45mm_HandSolder";3;"22u";;;
80;"R38,R42,R41,R40,R37,R44,R39,R43";"R_0603_1608Metric_Pad0.98x0.95mm_HandSolder";8;"3K3";;;
81;"C31";"C_0603_1608Metric_Pad1.08x0.95mm_HandSolder";1;"22n";;;
82;"U3";"TQFP-48_7x7mm_P0.5mm";1;"BQ7695204";;;
83;"U2,U1";"TSSOP-16_4.4x5mm_P0.65mm";2;"TMUX1309";;;
84;"R61";"R_0603_1608Metric_Pad0.98x0.95mm_HandSolder";1;"100K";;;
